OFF
146 140 0
-50.45694 28.99373 -41.91609 
-46.47469 29.98407 -41.04528 
-45.21165 30.03813 -40.87428 
-44.30242 29.20554 -40.6244 
-43.65853 27.70796 -40.31535 
-43.19153 25.76706 -39.96686 
-42.81297 23.60449 -39.59864 
-42.43442 21.44192 -39.23042 
-41.96741 19.50101 -38.88193 
-41.32352 18.00343 -38.57288 
-40.41428 17.17084 -38.32299 
-39.15126 17.2249 -38.152 
-37.446 18.38727 -38.07962 
-35.49585 19.51081 -37.96691 
-33.55577 19.45748 -37.68441 
-31.62374 18.46266 -37.26609 
-29.69775 16.76173 -36.74589 
-27.77579 14.59006 -36.15779 
-25.85584 12.18301 -35.53572 
-23.93589 9.775968 -34.91367 
-22.01393 7.604294 -34.32556 
-20.08793 5.903365 -33.80536 
-18.1559 4.908549 -33.38704 
-16.21582 4.855223 -33.10455 
-14.26567 5.978755 -32.99183 
-12.32178 7.472785 -32.9339 
-10.38183 8.424957 -32.79771 
-8.415823 8.91166 -32.59011 
-6.393774 9.009281 -32.31796 
-4.285686 8.794209 -31.98814 
-2.061568 8.342827 -31.60752 
0.3085738 7.731524 -31.18294 
2.854731 7.03669 -30.72129 
5.606894 6.33471 -30.22943 
8.595059 5.701971 -29.71422 
11.84921 5.214862 -29.18253 
15.39935 4.949772 -28.64123 
18.6372 5.092745 -28.20351 
21.04512 5.715011 -27.95304 
22.78913 6.720706 -27.85238 
24.0352 8.013978 -27.86407 
24.94929 9.498964 -27.95065 
25.6974 11.07981 -28.07469 
26.44551 12.66066 -28.19873 
27.35961 14.14564 -28.28532 
28.60566 15.43891 -28.29701 
30.34966 16.44461 -28.19635 
32.7576 17.06688 -27.94588 
35.99544 17.20985 -27.50817 
-51.12042 28.74795 27.09341 
-47.13815 29.73829 27.96423 
-45.87514 29.79234 28.13522 
-44.96589 28.95975 28.38511 
-44.32199 27.46218 28.69416 
-43.855 25.52127 29.04266 
-43.47644 23.3587 29.41087 
-43.09789 21.19613 29.77909 
-42.63088 19.25522 30.12759 
-41.98699 17.75764 30.43662 
-41.07775 16.92505 30.68651 
-39.81472 16.97911 30.85751 
-38.10948 18.14148 30.92989 
-36.15932 19.26502 31.04261 
-34.21924 19.21169 31.32509 
-32.2872 18.21688 31.74342 
-30.36122 16.51595 32.26362 
-28.43925 14.34427 32.85172 
-26.5193 11.93723 33.47378 
-24.59936 9.530182 34.09586 
-22.67739 7.358508 34.68395 
-20.7514 5.657578 35.20415 
-18.81937 4.662765 35.62247 
-16.87929 4.609437 35.90496 
-14.92914 5.732969 36.01768 
-12.98525 7.226998 36.0756 
-11.0453 8.179171 36.2118 
-9.079296 8.665874 36.41941 
-7.057245 8.763496 36.69155 
-4.949158 8.548422 37.02137 
-2.725039 8.09704 37.402 
-0.3548983 7.485738 37.82657 
2.191258 6.790903 38.28821 
4.943422 6.088924 38.78008 
7.931579 5.456184 39.29528 
11.18574 4.969075 39.82698 
14.73588 4.703984 40.36828 
17.97373 4.846959 40.80601 
20.38166 5.469224 41.05646 
22.12566 6.47492 41.15712 
23.37172 7.768191 41.14544 
24.28581 9.25318 41.05886 
25.03392 10.83402 40.93482 
25.78204 12.41487 40.81078 
26.69613 13.89985 40.72419 
27.94219 15.19313 40.71251 
29.68619 16.19882 40.81316 
32.09412 16.82109 41.06363 
35.33195 16.96406 41.50135 
18.6372 5.092745 -28.20351 
21.04512 5.715011 -27.95304 
22.78913 6.720706 -27.85238 
24.0352 8.013978 -27.86407 
24.94929 9.498964 -27.95065 
25.6974 11.07981 -28.07469 
26.44551 12.66066 -28.19873 
27.35961 14.14564 -28.28532 
28.60566 15.43891 -28.29701 
30.34966 16.44461 -28.19635 
32.7576 17.06688 -27.94588 
35.99544 17.20985 -27.50817 
17.97373 4.846959 40.80601 
20.38166 5.469224 41.05646 
22.12566 6.47492 41.15712 
23.37172 7.768191 41.14544 
24.28581 9.25318 41.05886 
25.03392 10.83402 40.93482 
25.78204 12.41487 40.81078 
26.69613 13.89985 40.72419 
27.94219 15.19313 40.71251 
29.68619 16.19882 40.81316 
32.09412 16.82109 41.06363 
35.33195 16.96406 41.50135 
18.6372 5.092745 -28.20351 
21.04512 5.715011 -27.95304 
22.78913 6.720706 -27.85238 
24.0352 8.013978 -27.86407 
24.94929 9.498964 -27.95065 
25.6974 11.07981 -28.07469 
26.44551 12.66066 -28.19873 
27.35961 14.14564 -28.28532 
28.60566 15.43891 -28.29701 
30.34966 16.44461 -28.19635 
32.7576 17.06688 -27.94588 
35.99544 17.20985 -27.50817 
17.97373 4.846959 40.80601 
20.38166 5.469224 41.05646 
22.12566 6.47492 41.15712 
23.37172 7.768191 41.14544 
24.28581 9.25318 41.05886 
25.03392 10.83402 40.93482 
25.78204 12.41487 40.81078 
26.69613 13.89985 40.72419 
27.94219 15.19313 40.71251 
29.68619 16.19882 40.81316 
32.09412 16.82109 41.06363 
35.33195 16.96406 41.50135 
3 96 47 48 
3 96 48 97 
3 95 46 47 
3 95 47 96 
3 94 45 46 
3 94 46 95 
3 94 93 44 
3 94 44 45 
3 93 92 43 
3 93 43 44 
3 92 91 42 
3 92 42 43 
3 91 90 41 
3 91 41 42 
3 90 89 40 
3 90 40 41 
3 89 88 39 
3 89 39 40 
3 87 38 39 
3 87 39 88 
3 86 37 38 
3 86 38 87 
3 85 36 37 
3 85 37 86 
3 84 35 36 
3 84 36 85 
3 83 34 35 
3 83 35 84 
3 82 33 34 
3 82 34 83 
3 81 32 33 
3 81 33 82 
3 80 31 32 
3 80 32 81 
3 79 30 31 
3 79 31 80 
3 78 29 30 
3 78 30 79 
3 77 28 29 
3 77 29 78 
3 76 27 28 
3 76 28 77 
3 75 26 27 
3 75 27 76 
3 74 25 26 
3 74 26 75 
3 73 24 25 
3 73 25 74 
3 72 23 24 
3 72 24 73 
3 71 22 23 
3 71 23 72 
3 70 21 22 
3 70 22 71 
3 69 20 21 
3 69 21 70 
3 68 19 20 
3 68 20 69 
3 67 18 19 
3 67 19 68 
3 66 17 18 
3 66 18 67 
3 65 16 17 
3 65 17 66 
3 64 15 16 
3 64 16 65 
3 63 14 15 
3 63 15 64 
3 62 13 14 
3 62 14 63 
3 61 12 13 
3 61 13 62 
3 60 11 12 
3 60 12 61 
3 59 10 11 
3 59 11 60 
3 58 9 10 
3 58 10 59 
3 57 8 9 
3 57 9 58 
3 56 7 8 
3 56 8 57 
3 55 6 7 
3 55 7 56 
3 54 5 6 
3 54 6 55 
3 53 4 5 
3 53 5 54 
3 52 3 4 
3 52 4 53 
3 51 2 3 
3 51 3 52 
3 50 1 2 
3 50 2 51 
3 49 0 1 
3 49 1 50 
3 120 108 109 
3 120 109 121 
3 119 107 108 
3 119 108 120 
3 118 106 107 
3 118 107 119 
3 118 117 105 
3 118 105 106 
3 117 116 104 
3 117 104 105 
3 116 115 103 
3 116 103 104 
3 115 114 102 
3 115 102 103 
3 114 113 101 
3 114 101 102 
3 113 112 100 
3 113 100 101 
3 111 99 100 
3 111 100 112 
3 110 98 99 
3 110 99 111 
3 144 132 133 
3 144 133 145 
3 143 131 132 
3 143 132 144 
3 142 130 131 
3 142 131 143 
3 142 141 129 
3 142 129 130 
3 141 140 128 
3 141 128 129 
3 140 139 127 
3 140 127 128 
3 139 138 126 
3 139 126 127 
3 138 137 125 
3 138 125 126 
3 137 136 124 
3 137 124 125 
3 135 123 124 
3 135 124 136 
3 134 122 123 
3 134 123 135 
