OFF
66 64 0
-1 0 -24 
0 0 -24 
1 0 -24 
2 0.38 -24 
3 1.05 -24 
4 0.15 -24 
5 0.03 -24 
6 0.35 -24 
7 0.78 -24 
8 1.33 -24 
9 1.58 -24 
10 1.47 -24 
11 1.15 -24 
12 0.82 -24 
13 0 -24 
14 -0.51 -24 
15 -2.11 -24 
16 -2.2 -24 
17 -1.74 -24 
18 -0.97 -24 
19 -0.41 -24 
20 0 -24 
21 0 -24 
22 0.51 -24 
23 1.61 -24 
24 3.1 -24 
25 0 -24 
26 0 -24 
27 0 -24 
28 4.15 -24 
29 6.47 -24 
30 6.83 -24 
31 6.83 -24 
-1 0 24 
0 0 24 
1 0 24 
2 0.38 24 
3 1.05 24 
4 0.15 24 
5 0.03 24 
6 0.35 24 
7 0.78 24 
8 1.33 24 
9 1.58 24 
10 1.47 24 
11 1.15 24 
12 0.82 24 
13 0 24 
14 -0.51 24 
15 -2.11 24 
16 -2.2 24 
17 -1.74 24 
18 -0.97 24 
19 -0.41 24 
20 0 24 
21 0 24 
22 0.51 24 
23 1.61 24 
24 3.1 24 
25 0 24 
26 0 24 
27 0 24 
28 4.15 24 
29 6.47 24 
30 6.83 24 
31 6.83 24 
3 0 33 1 
3 1 34 2 
3 2 35 3 
3 3 36 4 
3 4 37 5 
3 5 38 6 
3 6 39 7 
3 7 40 8 
3 8 41 9 
3 9 42 10 
3 10 43 11 
3 11 44 12 
3 12 45 13 
3 13 46 14 
3 14 47 15 
3 15 48 16 
3 16 49 17 
3 17 50 18 
3 18 51 19 
3 19 52 20 
3 20 53 21 
3 21 54 22 
3 22 55 23 
3 23 56 24 
3 24 57 25 
3 25 58 26 
3 26 59 27 
3 27 60 28 
3 28 61 29 
3 29 62 30 
3 30 63 31 
3 31 64 32 
3 1 33 34 
3 2 34 35 
3 3 35 36 
3 4 36 37 
3 5 37 38 
3 6 38 39 
3 7 39 40 
3 8 40 41 
3 9 41 42 
3 10 42 43 
3 11 43 44 
3 12 44 45 
3 13 45 46 
3 14 46 47 
3 15 47 48 
3 16 48 49 
3 17 49 50 
3 18 50 51 
3 19 51 52 
3 20 52 53 
3 21 53 54 
3 22 54 55 
3 23 55 56 
3 24 56 57 
3 25 57 58 
3 26 58 59 
3 27 59 60 
3 28 60 61 
3 29 61 62 
3 30 62 63 
3 31 63 64 
3 32 64 65 
